…
### Question a: What’s the best time of year to fly to minimize delays?

<br>

    ##   mean_DepDelay
    ## 1            NA

    ##   min Q1 median Q3 max     mean       sd     n missing
    ## 1 -42 -4      0  8 875 9.171135 31.15531 97847    1413

    ##   mean_DepDelay
    ## 1      9.171135

    ## # A tibble: 175 × 4
    ## # Groups:   Month [12]
    ##    Month UniqueCarrier count mean_DepDelay
    ##    <int> <chr>         <int>         <dbl>
    ##  1     1 9E              175        17.4  
    ##  2     1 AA             1728         9.43 
    ##  3     1 B6              242         6.56 
    ##  4     1 CO              764         6.26 
    ##  5     1 DL               92         8.67 
    ##  6     1 EV              266        13.9  
    ##  7     1 F9              178         2.49 
    ##  8     1 MQ              460         0.991
    ##  9     1 NW               23        -1.57 
    ## 10     1 OH              281        11.2  
    ## # … with 165 more rows
…
